%YAML 1.1
%TAG !u! tag:unity3d.com,2011:
--- !u!1001 &1849750639164557785
PrefabInstance:
  m_ObjectHideFlags: 0
  serializedVersion: 2
  m_Modification:
    m_TransformParent: {fileID: 0}
    m_Modifications:
    - target: {fileID: 2609368648510508163, guid: 0fadf0d96a8b06c44a075b5eeec5b6a5,
        type: 3}
      propertyPath: m_RootOrder
      value: 0
      objectReference: {fileID: 0}
    - target: {fileID: 2609368648510508163, guid: 0fadf0d96a8b06c44a075b5eeec5b6a5,
        type: 3}
      propertyPath: m_LocalPosition.x
      value: -0
      objectReference: {fileID: 0}
    - target: {fileID: 2609368648510508163, guid: 0fadf0d96a8b06c44a075b5eeec5b6a5,
        type: 3}
      propertyPath: m_LocalPosition.y
      value: 0
      objectReference: {fileID: 0}
    - target: {fileID: 2609368648510508163, guid: 0fadf0d96a8b06c44a075b5eeec5b6a5,
        type: 3}
      propertyPath: m_LocalPosition.z
      value: 0
      objectReference: {fileID: 0}
    - target: {fileID: 2609368648510508163, guid: 0fadf0d96a8b06c44a075b5eeec5b6a5,
        type: 3}
      propertyPath: m_LocalRotation.w
      value: 1
      objectReference: {fileID: 0}
    - target: {fileID: 2609368648510508163, guid: 0fadf0d96a8b06c44a075b5eeec5b6a5,
        type: 3}
      propertyPath: m_LocalRotation.x
      value: 0
      objectReference: {fileID: 0}
    - target: {fileID: 2609368648510508163, guid: 0fadf0d96a8b06c44a075b5eeec5b6a5,
        type: 3}
      propertyPath: m_LocalRotation.y
      value: -0
      objectReference: {fileID: 0}
    - target: {fileID: 2609368648510508163, guid: 0fadf0d96a8b06c44a075b5eeec5b6a5,
        type: 3}
      propertyPath: m_LocalRotation.z
      value: -0
      objectReference: {fileID: 0}
    - target: {fileID: 2609368648510508163, guid: 0fadf0d96a8b06c44a075b5eeec5b6a5,
        type: 3}
      propertyPath: m_LocalEulerAnglesHint.x
      value: 0
      objectReference: {fileID: 0}
    - target: {fileID: 2609368648510508163, guid: 0fadf0d96a8b06c44a075b5eeec5b6a5,
        type: 3}
      propertyPath: m_LocalEulerAnglesHint.y
      value: 0
      objectReference: {fileID: 0}
    - target: {fileID: 2609368648510508163, guid: 0fadf0d96a8b06c44a075b5eeec5b6a5,
        type: 3}
      propertyPath: m_LocalEulerAnglesHint.z
      value: 0
      objectReference: {fileID: 0}
    - target: {fileID: 3422039010496927289, guid: 0fadf0d96a8b06c44a075b5eeec5b6a5,
        type: 3}
      propertyPath: m_Name
      value: radiostation_001 Variant
      objectReference: {fileID: 0}
    - target: {fileID: 3422039010496927289, guid: 0fadf0d96a8b06c44a075b5eeec5b6a5,
        type: 3}
      propertyPath: m_IsActive
      value: 1
      objectReference: {fileID: 0}
    m_RemovedComponents: []
  m_SourcePrefab: {fileID: 100100000, guid: 0fadf0d96a8b06c44a075b5eeec5b6a5, type: 3}
--- !u!1 &3951385574023520224 stripped
GameObject:
  m_CorrespondingSourceObject: {fileID: 3422039010496927289, guid: 0fadf0d96a8b06c44a075b5eeec5b6a5,
    type: 3}
  m_PrefabInstance: {fileID: 1849750639164557785}
  m_PrefabAsset: {fileID: 0}
--- !u!50 &2877816408648053619
Rigidbody2D:
  serializedVersion: 4
  m_ObjectHideFlags: 0
  m_CorrespondingSourceObject: {fileID: 0}
  m_PrefabInstance: {fileID: 0}
  m_PrefabAsset: {fileID: 0}
  m_GameObject: {fileID: 3951385574023520224}
  m_BodyType: 0
  m_Simulated: 1
  m_UseFullKinematicContacts: 0
  m_UseAutoMass: 0
  m_Mass: 1
  m_LinearDrag: 0
  m_AngularDrag: 0.05
  m_GravityScale: 1
  m_Material: {fileID: 6200000, guid: cad444d069486e84c8b738917d3e6acb, type: 2}
  m_Interpolate: 0
  m_SleepingMode: 1
  m_CollisionDetection: 0
  m_Constraints: 0
--- !u!61 &5626660364204204710
BoxCollider2D:
  m_ObjectHideFlags: 0
  m_CorrespondingSourceObject: {fileID: 0}
  m_PrefabInstance: {fileID: 0}
  m_PrefabAsset: {fileID: 0}
  m_GameObject: {fileID: 3951385574023520224}
  m_Enabled: 1
  m_Density: 1
  m_Material: {fileID: 0}
  m_IsTrigger: 0
  m_UsedByEffector: 0
  m_UsedByComposite: 0
  m_Offset: {x: 0.0020450354, y: 3.3726795}
  m_SpriteTilingProperty:
    border: {x: 0, y: 0, z: 0, w: 0}
    pivot: {x: 0, y: 0}
    oldSize: {x: 0, y: 0}
    newSize: {x: 0, y: 0}
    adaptiveTilingThreshold: 0
    drawMode: 0
    adaptiveTiling: 0
  m_AutoTiling: 0
  serializedVersion: 2
  m_Size: {x: 3.6256428, y: 6.7532907}
  m_EdgeRadius: 0.2
